<?xml version="1.0" standalone="no"?>
<!DOCTYPE svg PUBLIC "-//W3C//DTD SVG 20010904//EN"
 "http://www.w3.org/TR/2001/REC-SVG-20010904/DTD/svg10.dtd">
<svg version="1.0" xmlns="http://www.w3.org/2000/svg"
 width="656.000000pt" height="252.000000pt" viewBox="0 0 656.000000 252.000000"
 preserveAspectRatio="xMidYMid meet">

<g transform="translate(0.000000,252.000000) scale(0.100000,-0.100000)"
fill="#000000" stroke="none">
<path d="M5647 2506 c-124 -45 -153 -166 -164 -671 -7 -381 14 -794 58 -1107
l11 -77 -46 -70 c-116 -174 -301 -258 -456 -206 -63 21 -155 103 -193 173 -38
70 -67 189 -74 305 l-6 97 52 0 c73 0 194 27 276 61 287 120 393 398 224 583
-58 64 -123 100 -225 126 -314 81 -573 -106 -670 -485 -49 -190 -44 -459 11
-634 27 -85 26 -88 -41 -127 -102 -60 -211 -31 -285 76 -38 56 -84 163 -145
345 l-34 99 47 70 c27 39 130 180 231 313 121 163 182 252 182 269 0 17 -10
30 -32 44 -47 28 -89 26 -123 -7 -39 -39 -152 -193 -265 -361 l-95 -142 -37
116 c-42 130 -109 278 -140 311 -53 56 -171 68 -255 25 -75 -39 -79 -12 61
-433 101 -304 124 -384 116 -399 -13 -24 -19 -24 -44 -5 -11 8 -30 15 -42 15
-17 0 -23 -8 -29 -38 -20 -114 -138 -284 -243 -350 -133 -85 -294 -81 -395 9
-202 177 -232 814 -50 1057 48 64 133 83 178 38 45 -46 45 -198 0 -311 l-25
-60 23 -17 c29 -23 103 -48 139 -48 68 0 142 60 169 137 8 22 14 79 14 138 0
87 -4 107 -27 157 -70 151 -265 241 -451 210 -109 -18 -189 -62 -277 -151
-113 -114 -182 -263 -210 -460 -19 -123 -8 -332 22 -450 l25 -93 -37 -57 c-46
-71 -122 -139 -165 -147 -114 -21 -135 106 -95 595 28 349 25 493 -11 571 -51
110 -138 176 -245 187 l-54 6 0 -84 c0 -46 -9 -181 -20 -299 -57 -629 -50
-843 30 -1000 30 -60 97 -122 166 -156 53 -26 69 -29 154 -29 80 0 103 4 144
24 60 29 153 122 186 183 l23 45 67 -66 c80 -79 167 -132 275 -168 142 -46
333 -35 455 27 35 18 36 18 63 -2 15 -11 38 -18 54 -16 23 3 39 24 112 149 93
158 183 299 191 299 3 0 25 -46 48 -102 76 -179 148 -283 225 -325 48 -26 175
-23 246 6 81 33 180 101 240 166 l55 58 30 -39 c114 -146 274 -228 470 -241
191 -12 383 57 520 187 l71 68 18 -42 c74 -180 276 -267 468 -201 66 23 167
110 224 195 49 71 50 73 50 149 0 63 -4 81 -23 109 -13 17 -29 32 -35 32 -7 0
-21 -24 -31 -52 -35 -102 -118 -214 -183 -247 -57 -29 -117 -1 -154 71 -37 72
-50 163 -56 378 l-5 205 65 195 c110 327 148 508 149 715 1 202 -53 370 -155
481 -81 88 -205 131 -290 100z m244 -460 c24 -53 25 -213 3 -341 -26 -154 -87
-390 -94 -369 -25 67 -39 571 -20 675 18 94 76 113 111 35z m-816 -478 c34
-27 64 -92 65 -139 0 -98 -67 -211 -160 -267 -55 -33 -178 -77 -188 -67 -11
10 19 158 49 251 66 197 156 283 234 222z"/>
<path d="M669 2400 c-279 -21 -485 -93 -589 -207 -79 -86 -98 -187 -53 -278
18 -36 82 -105 98 -105 6 0 28 20 49 45 20 25 70 68 109 96 81 57 236 144 243
136 3 -2 -2 -141 -10 -308 -8 -167 -18 -370 -22 -451 l-6 -147 -87 -3 -86 -3
-3 -34 c-3 -28 3 -39 42 -77 25 -23 63 -48 84 -55 l39 -11 6 -247 c9 -368 25
-449 102 -524 51 -50 128 -77 217 -77 68 0 70 1 64 23 -4 12 -9 210 -13 440
l-6 417 21 0 c40 0 291 88 374 132 188 97 333 240 421 413 63 125 77 270 38
388 -43 128 -165 263 -298 331 -158 79 -474 125 -734 106z m525 -220 c118 -45
186 -146 186 -275 0 -127 -75 -315 -164 -412 -81 -89 -209 -178 -326 -227
l-35 -14 3 301 c4 307 -7 476 -34 566 -8 26 -14 51 -14 58 0 18 114 32 225 28
73 -2 116 -9 159 -25z"/>
<path d="M1840 2299 c-107 -45 -115 -152 -19 -254 92 -97 232 -139 335 -100
143 54 92 241 -89 330 -65 31 -181 44 -227 24z"/>
</g>
</svg>
